Multiclass regression • multiclassreg
…
#> # A tibble: 8 × 8
#> # Groups:   knot [8]
#>    knot    df sigma2     n   aic  bic1   bic2  ebic
#>   <int> <dbl>  <dbl> <int> <dbl> <dbl>  <dbl> <dbl>
#> 1     1     7 131.     100 5.01  5.19  131.    5.38
#> 2     2     8  45.5    100 3.98  4.19   45.9   4.40
#> 3     3     9  42.0    100 3.92  4.15   42.4   4.39
#> 4     4    10   1.64   100 0.692 0.953   2.10  1.22
#> 5     5    11   1.62   100 0.701 0.987   2.12  1.28
#> 6     6    12   1.54   100 0.671 0.983   2.09  1.30
#> 7     7    13   1.52   100 0.682 1.02    2.12  1.36
#> 8     8    14   1.52   100 0.701 1.07    2.17  1.43
# the coefficient data frame (scaled and rescaled)
res$coef_df
#> # A tibble: 112 × 10
#> # Groups:   knot [8]
#>    class x_var present scale_factor lambda  scaled_coef `rev(as.numeric(l…  knot
#>    <chr> <chr> <lgl>          <dbl> <chr>         <dbl>              <dbl> <int>
#>  1 A     X1    TRUE            1.12 467.74…     -1.85                    0     1
#>  2 A     X2    TRUE            1.40 467.74…     -0.0173                  0     1
#>  3 A     X3    TRUE            1.81 467.74…      7.49                    0     1
#>  4 A     X4    TRUE            2.11 467.74…      0.386                   0     1
#>  5 A     X5    TRUE            2.32 467.74…     -1.60                    0     1
#>  6 A     X6    TRUE            2.47 467.74…     14.0                     0     1
#>  7 A     X7    TRUE            2.53 467.74…      8.45                    0     1
#>  8 B     X1    TRUE            1.12 467.74…     -1.85                    0     1
#>  9 B     X2    TRUE            1.40 467.74…     -0.0173                  0     1
#> 10 B     X3    TRUE            1.81 467.74…      7.49                    0     1
#> # … with 102 more rows, and 2 more variables: coef <dbl>, df <int>
…
