Plot coefficient paths for multiclass regression objects — plot.mcreg • multiclassreg
…
#> [29,] -1.10876826 -1.10371954 -1.09469952
#> [30,]  0.39500548  0.39110982  0.34278877
#> [31,]  0.65661774  0.63817221  0.49172553
#> [32,] -1.01555211 -1.03433028 -1.08413266
#> [33,] -0.43123693 -0.43073110 -0.47976782
#> [34,] -1.06342761 -1.05918910 -1.06950226
#> [35,] -0.43699073 -0.44198192 -0.43788603
#> [36,]  0.31598774  0.30189817  0.29643680
#> [37,] -0.20357501 -0.18157251 -0.08966840
#> [38,] -0.44110566 -0.46144040 -0.67672961
#> [39,] -1.18470627 -1.18651202 -1.21777694
#> [40,]  0.20767701  0.20528381  0.18806992
#> 
#> $coef_df
#> # A tibble: 112 × 10
#> # Groups:   knot [8]
#>    class x_var present scale_factor lambda  scaled_coef `rev(as.numeric(l…  knot
#>    <chr> <chr> <lgl>          <dbl> <chr>         <dbl>              <dbl> <int>
#>  1 1     V1    TRUE           1.09  4.34242     -0.0639                  0     1
#>  2 1     V2    TRUE           0.945 4.34242     -0.0655                  0     1
#>  3 1     V3    TRUE           0.862 4.34242      0.127                   0     1
#>  4 1     V4    TRUE           1.08  4.34242      0.257                   0     1
#>  5 1     V5    TRUE           1.00  4.34242     -0.0768                  0     1
#>  6 1     V6    TRUE           0.882 4.34242     -0.103                   0     1
#>  7 1     V7    TRUE           0.938 4.34242      0.244                   0     1
#>  8 2     V1    TRUE           1.09  4.34242     -0.0639                  0     1
#>  9 2     V2    TRUE           0.945 4.34242     -0.0655                  0     1
#> 10 2     V3    TRUE           0.862 4.34242      0.127                   0     1
#> # … with 102 more rows, and 2 more variables: coef <dbl>, df <int>
…
#>  5 1         5  0.137 
#>  6 1         6  0.126 
#>  7 1         7  0.120 
#>  8 1         8  0.0716
#>  9 2         1  0.137 
#> 10 2         2  0.127 
#> 11 2         3  0.122 
#> 12 2         4  0.0636
#> 13 2         5 -0.0110
#> 14 2         6 -0.0503
#> 15 2         7 -0.0586
#> 16 2         8 -0.0940
#> 
#> $predictions
#> # A tibble: 320 × 8
#> # Groups:   obs_no, class, knot [320]
#>    obs_no class  knot    df prediction      y  alpha  yhat
#>     <int> <chr> <int> <int>      <dbl>  <dbl>  <dbl> <dbl>
#>  1      1 1         1     7      0.504  0.398 0.187  0.691
#>  2      1 1         2     8      0.508  0.398 0.183  0.691
#>  3      1 1         3     9      0.507  0.398 0.180  0.687
#>  4      1 1         4    10      0.460  0.398 0.165  0.626
#>  5      1 1         5    11      0.405  0.398 0.137  0.542
#>  6      1 1         6    12      0.403  0.398 0.126  0.528
#>  7      1 1         7    13      0.407  0.398 0.120  0.527
#>  8      1 1         8    14      0.614  0.398 0.0716 0.686
#>  9      2 1         1     7      0.243 -0.408 0.187  0.430
#> 10      2 1         2     8      0.243 -0.408 0.183  0.426
#> # … with 310 more rows
#> 
#> $scaled_predictions
#> # A tibble: 320 × 5
#> # Groups:   obs_no, class [40]
#>    obs_no class  knot scaled_prediction      y
#>     <int> <chr> <int>             <dbl>  <dbl>
#>  1      1 1         1             0.490  0.257
#>  2      1 1         2             0.497  0.257
#>  3      1 1         3             0.497  0.257
#>  4      1 1         4             0.470  0.257
#>  5      1 1         5             0.438  0.257
#>  6      1 1         6             0.452  0.257
#>  7      1 1         7             0.458  0.257
#>  8      1 1         8             0.679  0.257
#>  9      2 1         1             0.229 -0.549
#> 10      2 1         2             0.231 -0.549
#> # … with 310 more rows
…
